{
    "name": "Nyan Cat",
    "description": "An adorable PUG pup!",
    "image": "https://upload.wikimedia.org/wikipedia/ru/6/6b/NyanCat.gif",
    "attributes": [
        {
            "trait_type": "cuteness",
            "value": 100
        },
        {
            "trait_type": "Nyan",
            "value": 99
        }
    ]
}